{
    "listener": [
      {
        "tcp": {
          "address": "0.0.0.0:8200",
          "tls_cert_file": "/vault/config/cert/fullchain.pem",
          "tls_key_file": "/vault/config/cert/privkey.pem"
        }
      }
    ],
    "api_addr": "https://docker-01.viridian.ltd:8200",
    "storage": {
      "file": {
        "path": "/vault-data"
      }
    },
    "max_lease_ttl": "17520h",
    "default_lease_ttl": "17520h",
    "ui": true
  }
  